%YAML 1.1
%TAG !u! tag:unity3d.com,2011:
--- !u!29 &1
OcclusionCullingSettings:
  m_ObjectHideFlags: 0
  serializedVersion: 2
  m_OcclusionBakeSettings:
    smallestOccluder: 5
    smallestHole: 0.25
    backfaceThreshold: 100
  m_SceneGUID: 00000000000000000000000000000000
  m_OcclusionCullingData: {fileID: 0}
--- !u!104 &2
RenderSettings:
  m_ObjectHideFlags: 0
  serializedVersion: 8
  m_Fog: 0
  m_FogColor: {r: 0.5, g: 0.5, b: 0.5, a: 1}
  m_FogMode: 3
  m_FogDensity: 0.01
  m_LinearFogStart: 0
  m_LinearFogEnd: 300
  m_AmbientSkyColor: {r: 0.212, g: 0.227, b: 0.259, a: 1}
  m_AmbientEquatorColor: {r: 0.114, g: 0.125, b: 0.133, a: 1}
  m_AmbientGroundColor: {r: 0.047, g: 0.043, b: 0.035, a: 1}
  m_AmbientIntensity: 1
  m_AmbientMode: 0
  m_SubtractiveShadowColor: {r: 0.42, g: 0.478, b: 0.627, a: 1}
  m_SkyboxMaterial: {fileID: 10304, guid: 0000000000000000f000000000000000, type: 0}
  m_HaloStrength: 0.5
  m_FlareStrength: 1
  m_FlareFadeSpeed: 3
  m_HaloTexture: {fileID: 0}
  m_SpotCookie: {fileID: 10001, guid: 0000000000000000e000000000000000, type: 0}
  m_DefaultReflectionMode: 0
  m_DefaultReflectionResolution: 128
  m_ReflectionBounces: 1
  m_ReflectionIntensity: 1
  m_CustomReflection: {fileID: 0}
  m_Sun: {fileID: 0}
  m_IndirectSpecularColor: {r: 0.18028378, g: 0.22571412, b: 0.30692285, a: 1}
--- !u!157 &3
LightmapSettings:
  m_ObjectHideFlags: 0
  serializedVersion: 11
  m_GIWorkflowMode: 0
  m_GISettings:
    serializedVersion: 2
    m_BounceScale: 1
    m_IndirectOutputScale: 1
    m_AlbedoBoost: 1
    m_TemporalCoherenceThreshold: 1
    m_EnvironmentLightingMode: 0
    m_EnableBakedLightmaps: 1
    m_EnableRealtimeLightmaps: 1
  m_LightmapEditorSettings:
    serializedVersion: 9
    m_Resolution: 2
    m_BakeResolution: 40
    m_TextureWidth: 1024
    m_TextureHeight: 1024
    m_AO: 0
    m_AOMaxDistance: 1
    m_CompAOExponent: 0
    m_CompAOExponentDirect: 0
    m_Padding: 2
    m_LightmapParameters: {fileID: 0}
    m_LightmapsBakeMode: 1
    m_TextureCompression: 1
    m_FinalGather: 0
    m_FinalGatherFiltering: 1
    m_FinalGatherRayCount: 1024
    m_ReflectionCompression: 2
    m_MixedBakeMode: 1
    m_BakeBackend: 0
    m_PVRSampling: 1
    m_PVRDirectSampleCount: 32
    m_PVRSampleCount: 500
    m_PVRBounces: 2
    m_PVRFilterTypeDirect: 0
    m_PVRFilterTypeIndirect: 0
    m_PVRFilterTypeAO: 0
    m_PVRFilteringMode: 0
    m_PVRCulling: 1
    m_PVRFilteringGaussRadiusDirect: 1
    m_PVRFilteringGaussRadiusIndirect: 5
    m_PVRFilteringGaussRadiusAO: 2
    m_PVRFilteringAtrousPositionSigmaDirect: 0.5
    m_PVRFilteringAtrousPositionSigmaIndirect: 2
    m_PVRFilteringAtrousPositionSigmaAO: 1
    m_ShowResolutionOverlay: 1
  m_LightingDataAsset: {fileID: 0}
  m_UseShadowmask: 0
--- !u!196 &4
NavMeshSettings:
  serializedVersion: 2
  m_ObjectHideFlags: 0
  m_BuildSettings:
    serializedVersion: 2
    agentTypeID: 0
    agentRadius: 0.5
    agentHeight: 2
    agentSlope: 45
    agentClimb: 0.4
    ledgeDropHeight: 0
    maxJumpAcrossDistance: 0
    minRegionArea: 2
    manualCellSize: 0
    cellSize: 0.16666667
    manualTileSize: 0
    tileSize: 256
    accuratePlacement: 0
    debug:
      m_Flags: 0
  m_NavMeshData: {fileID: 0}
--- !u!1 &66309509 stripped
GameObject:
  m_PrefabParentObject: {fileID: 1000013428897076, guid: 41c0760bd81dd084283814f0c432b466,
    type: 2}
  m_PrefabInternal: {fileID: 1753781340}
--- !u!1 &116243921
GameObject:
  m_ObjectHideFlags: 0
  m_PrefabParentObject: {fileID: 0}
  m_PrefabInternal: {fileID: 0}
  serializedVersion: 5
  m_Component:
  - component: {fileID: 116243922}
  - component: {fileID: 116243923}
  m_Layer: 0
  m_Name: '[VRTK_SDKManager]'
  m_TagString: Untagged
  m_Icon: {fileID: 0}
  m_NavMeshLayer: 0
  m_StaticEditorFlags: 0
  m_IsActive: 1
--- !u!4 &116243922
Transform:
  m_ObjectHideFlags: 0
  m_PrefabParentObject: {fileID: 0}
  m_PrefabInternal: {fileID: 0}
  m_GameObject: {fileID: 116243921}
  m_LocalRotation: {x: 0, y: 0, z: 0, w: 1}
  m_LocalPosition: {x: 0, y: 0, z: 0}
  m_LocalScale: {x: 1, y: 1, z: 1}
  m_Children:
  - {fileID: 1753781342}
  - {fileID: 2134293819}
  m_Father: {fileID: 0}
  m_RootOrder: 2
  m_LocalEulerAnglesHint: {x: 0, y: 0, z: 0}
--- !u!114 &116243923
MonoBehaviour:
  m_ObjectHideFlags: 0
  m_PrefabParentObject: {fileID: 0}
  m_PrefabInternal: {fileID: 0}
  m_GameObject: {fileID: 116243921}
  m_Enabled: 1
  m_EditorHideFlags: 0
  m_Script: {fileID: 11500000, guid: 5837af0260a118e4d808bfe0405429a1, type: 3}
  m_Name: 
  m_EditorClassIdentifier: 
  persistOnLoad: 0
  autoManageScriptDefines: 1
  activeScriptingDefineSymbolsWithoutSDKClasses:
  - symbol: VRTK_DEFINE_SDK_OCULUS_AVATAR
    buildTargetGroupName: Standalone
  scriptAliasLeftController: {fileID: 0}
  scriptAliasRightController: {fileID: 0}
  autoManageVRSettings: 1
  autoLoadSetup: 1
  setups:
  - {fileID: 1753781346}
  - {fileID: 1753781345}
  - {fileID: 1753781344}
  - {fileID: 1753781343}
  - {fileID: 1753781341}
--- !u!1 &617935761 stripped
GameObject:
  m_PrefabParentObject: {fileID: 1000012404417072, guid: 41c0760bd81dd084283814f0c432b466,
    type: 2}
  m_PrefabInternal: {fileID: 1753781340}
--- !u!1 &714044474
GameObject:
  m_ObjectHideFlags: 0
  m_PrefabParentObject: {fileID: 0}
  m_PrefabInternal: {fileID: 0}
  serializedVersion: 5
  m_Component:
  - component: {fileID: 714044475}
  - component: {fileID: 714044476}
  m_Layer: 0
  m_Name: '##Scene Changer##'
  m_TagString: Untagged
  m_Icon: {fileID: 0}
  m_NavMeshLayer: 0
  m_StaticEditorFlags: 0
  m_IsActive: 1
--- !u!4 &714044475
Transform:
  m_ObjectHideFlags: 0
  m_PrefabParentObject: {fileID: 0}
  m_PrefabInternal: {fileID: 0}
  m_GameObject: {fileID: 714044474}
  m_LocalRotation: {x: -0, y: -0, z: -0, w: 1}
  m_LocalPosition: {x: 11.251919, y: -13.543237, z: -34.0993}
  m_LocalScale: {x: 1, y: 1, z: 1}
  m_Children: []
  m_Father: {fileID: 835187232}
  m_RootOrder: 0
  m_LocalEulerAnglesHint: {x: 0, y: 0, z: 0}
--- !u!114 &714044476
MonoBehaviour:
  m_ObjectHideFlags: 0
  m_PrefabParentObject: {fileID: 0}
  m_PrefabInternal: {fileID: 0}
  m_GameObject: {fileID: 714044474}
  m_Enabled: 1
  m_EditorHideFlags: 0
  m_Script: {fileID: 11500000, guid: c63141da60241d14394f8f3b547531f0, type: 3}
  m_Name: 
  m_EditorClassIdentifier: 
--- !u!1 &835187231
GameObject:
  m_ObjectHideFlags: 0
  m_PrefabParentObject: {fileID: 0}
  m_PrefabInternal: {fileID: 0}
  serializedVersion: 5
  m_Component:
  - component: {fileID: 835187232}
  m_Layer: 0
  m_Name: '[ExampleSceneScripts]'
  m_TagString: Untagged
  m_Icon: {fileID: 0}
  m_NavMeshLayer: 0
  m_StaticEditorFlags: 0
  m_IsActive: 1
--- !u!4 &835187232
Transform:
  m_ObjectHideFlags: 0
  m_PrefabParentObject: {fileID: 0}
  m_PrefabInternal: {fileID: 0}
  m_GameObject: {fileID: 835187231}
  m_LocalRotation: {x: 0, y: 0, z: 0, w: 1}
  m_LocalPosition: {x: 0, y: 0, z: 0}
  m_LocalScale: {x: 1, y: 1, z: 1}
  m_Children:
  - {fileID: 714044475}
  m_Father: {fileID: 0}
  m_RootOrder: 3
  m_LocalEulerAnglesHint: {x: 0, y: 0, z: 0}
--- !u!1 &1135670851
GameObject:
  m_ObjectHideFlags: 0
  m_PrefabParentObject: {fileID: 0}
  m_PrefabInternal: {fileID: 0}
  serializedVersion: 5
  m_Component:
  - component: {fileID: 1135670855}
  - component: {fileID: 1135670854}
  - component: {fileID: 1135670853}
  - component: {fileID: 1135670852}
  m_Layer: 0
  m_Name: Floor
  m_TagString: Untagged
  m_Icon: {fileID: 0}
  m_NavMeshLayer: 0
  m_StaticEditorFlags: 0
  m_IsActive: 1
--- !u!23 &1135670852
MeshRenderer:
  m_ObjectHideFlags: 0
  m_PrefabParentObject: {fileID: 0}
  m_PrefabInternal: {fileID: 0}
  m_GameObject: {fileID: 1135670851}
  m_Enabled: 1
  m_CastShadows: 1
  m_ReceiveShadows: 1
  m_DynamicOccludee: 1
  m_MotionVectors: 1
  m_LightProbeUsage: 1
  m_ReflectionProbeUsage: 1
  m_Materials:
  - {fileID: 10303, guid: 0000000000000000f000000000000000, type: 0}
  m_StaticBatchInfo:
    firstSubMesh: 0
    subMeshCount: 0
  m_StaticBatchRoot: {fileID: 0}
  m_ProbeAnchor: {fileID: 0}
  m_LightProbeVolumeOverride: {fileID: 0}
  m_ScaleInLightmap: 1
  m_PreserveUVs: 1
  m_IgnoreNormalsForChartDetection: 0
  m_ImportantGI: 0
  m_StitchLightmapSeams: 0
  m_SelectedEditorRenderState: 3
  m_MinimumChartSize: 4
  m_AutoUVMaxDistance: 0.5
  m_AutoUVMaxAngle: 89
  m_LightmapParameters: {fileID: 0}
  m_SortingLayerID: 0
  m_SortingLayer: 0
  m_SortingOrder: 0
--- !u!65 &1135670853
BoxCollider:
  m_ObjectHideFlags: 0
  m_PrefabParentObject: {fileID: 0}
  m_PrefabInternal: {fileID: 0}
  m_GameObject: {fileID: 1135670851}
  m_Material: {fileID: 0}
  m_IsTrigger: 0
  m_Enabled: 1
  serializedVersion: 2
  m_Size: {x: 1, y: 1, z: 1}
  m_Center: {x: 0, y: 0, z: 0}
--- !u!33 &1135670854
MeshFilter:
  m_ObjectHideFlags: 0
  m_PrefabParentObject: {fileID: 0}
  m_PrefabInternal: {fileID: 0}
  m_GameObject: {fileID: 1135670851}
  m_Mesh: {fileID: 10202, guid: 0000000000000000e000000000000000, type: 0}
--- !u!4 &1135670855
Transform:
  m_ObjectHideFlags: 0
  m_PrefabParentObject: {fileID: 0}
  m_PrefabInternal: {fileID: 0}
  m_GameObject: {fileID: 1135670851}
  m_LocalRotation: {x: 0, y: 0, z: 0, w: 1}
  m_LocalPosition: {x: 0, y: 0, z: 0}
  m_LocalScale: {x: 20, y: 1, z: 20}
  m_Children: []
  m_Father: {fileID: 0}
  m_RootOrder: 1
  m_LocalEulerAnglesHint: {x: 0, y: 0, z: 0}
--- !u!1 &1306628777 stripped
GameObject:
  m_PrefabParentObject: {fileID: 1000012704122952, guid: 41c0760bd81dd084283814f0c432b466,
    type: 2}
  m_PrefabInternal: {fileID: 1753781340}
--- !u!1001 &1753781340
Prefab:
  m_ObjectHideFlags: 0
  serializedVersion: 2
  m_Modification:
    m_TransformParent: {fileID: 116243922}
    m_Modifications:
    - target: {fileID: 4000011368645488, guid: 41c0760bd81dd084283814f0c432b466, type: 2}
      propertyPath: m_LocalPosition.x
      value: 0
      objectReference: {fileID: 0}
    - target: {fileID: 4000011368645488, guid: 41c0760bd81dd084283814f0c432b466, type: 2}
      propertyPath: m_LocalPosition.y
      value: 0
      objectReference: {fileID: 0}
    - target: {fileID: 4000011368645488, guid: 41c0760bd81dd084283814f0c432b466, type: 2}
      propertyPath: m_LocalPosition.z
      value: 0
      objectReference: {fileID: 0}
    - target: {fileID: 4000011368645488, guid: 41c0760bd81dd084283814f0c432b466, type: 2}
      propertyPath: m_LocalRotation.x
      value: 0
      objectReference: {fileID: 0}
    - target: {fileID: 4000011368645488, guid: 41c0760bd81dd084283814f0c432b466, type: 2}
      propertyPath: m_LocalRotation.y
      value: 0
      objectReference: {fileID: 0}
    - target: {fileID: 4000011368645488, guid: 41c0760bd81dd084283814f0c432b466, type: 2}
      propertyPath: m_LocalRotation.z
      value: 0
      objectReference: {fileID: 0}
    - target: {fileID: 4000011368645488, guid: 41c0760bd81dd084283814f0c432b466, type: 2}
      propertyPath: m_LocalRotation.w
      value: 1
      objectReference: {fileID: 0}
    - target: {fileID: 4000011368645488, guid: 41c0760bd81dd084283814f0c432b466, type: 2}
      propertyPath: m_RootOrder
      value: 0
      objectReference: {fileID: 0}
    - target: {fileID: 4000013811099478, guid: 41c0760bd81dd084283814f0c432b466, type: 2}
      propertyPath: m_LocalPosition.y
      value: -0.5
      objectReference: {fileID: 0}
    - target: {fileID: 114000010315091656, guid: 41c0760bd81dd084283814f0c432b466,
        type: 2}
      propertyPath: actualBoundaries
      value: 
      objectReference: {fileID: 1306628777}
    - target: {fileID: 114000010315091656, guid: 41c0760bd81dd084283814f0c432b466,
        type: 2}
      propertyPath: actualHeadset
      value: 
      objectReference: {fileID: 66309509}
    - target: {fileID: 114000010315091656, guid: 41c0760bd81dd084283814f0c432b466,
        type: 2}
      propertyPath: actualLeftController
      value: 
      objectReference: {fileID: 2108078769}
    - target: {fileID: 114000010315091656, guid: 41c0760bd81dd084283814f0c432b466,
        type: 2}
      propertyPath: actualRightController
      value: 
      objectReference: {fileID: 617935761}
    - target: {fileID: 114000010315091656, guid: 41c0760bd81dd084283814f0c432b466,
        type: 2}
      propertyPath: modelAliasLeftController
      value: 
      objectReference: {fileID: 0}
    - target: {fileID: 114000010315091656, guid: 41c0760bd81dd084283814f0c432b466,
        type: 2}
      propertyPath: modelAliasRightController
      value: 
      objectReference: {fileID: 0}
    - target: {fileID: 4000010114616428, guid: 41c0760bd81dd084283814f0c432b466, type: 2}
      propertyPath: m_LocalPosition.y
      value: 0.5
      objectReference: {fileID: 0}
    - target: {fileID: 114000012492157348, guid: 41c0760bd81dd084283814f0c432b466,
        type: 2}
      propertyPath: actualBoundaries
      value: 
      objectReference: {fileID: 0}
    - target: {fileID: 114000012492157348, guid: 41c0760bd81dd084283814f0c432b466,
        type: 2}
      propertyPath: actualHeadset
      value: 
      objectReference: {fileID: 0}
    - target: {fileID: 114000012492157348, guid: 41c0760bd81dd084283814f0c432b466,
        type: 2}
      propertyPath: actualLeftController
      value: 
      objectReference: {fileID: 0}
    - target: {fileID: 114000012492157348, guid: 41c0760bd81dd084283814f0c432b466,
        type: 2}
      propertyPath: actualRightController
      value: 
      objectReference: {fileID: 0}
    - target: {fileID: 114000012492157348, guid: 41c0760bd81dd084283814f0c432b466,
        type: 2}
      propertyPath: modelAliasLeftController
      value: 
      objectReference: {fileID: 0}
    - target: {fileID: 114000012492157348, guid: 41c0760bd81dd084283814f0c432b466,
        type: 2}
      propertyPath: modelAliasRightController
      value: 
      objectReference: {fileID: 0}
    m_RemovedComponents: []
  m_ParentPrefab: {fileID: 100100000, guid: 41c0760bd81dd084283814f0c432b466, type: 2}
  m_IsPrefabParent: 0
--- !u!114 &1753781341 stripped
MonoBehaviour:
  m_PrefabParentObject: {fileID: 114000010035616626, guid: 41c0760bd81dd084283814f0c432b466,
    type: 2}
  m_PrefabInternal: {fileID: 1753781340}
  m_Script: {fileID: 11500000, guid: eeda6d41317f444b900e374895f14e95, type: 3}
--- !u!4 &1753781342 stripped
Transform:
  m_PrefabParentObject: {fileID: 4000011368645488, guid: 41c0760bd81dd084283814f0c432b466,
    type: 2}
  m_PrefabInternal: {fileID: 1753781340}
--- !u!114 &1753781343 stripped
MonoBehaviour:
  m_PrefabParentObject: {fileID: 114000012492157348, guid: 41c0760bd81dd084283814f0c432b466,
    type: 2}
  m_PrefabInternal: {fileID: 1753781340}
  m_Script: {fileID: 11500000, guid: eeda6d41317f444b900e374895f14e95, type: 3}
--- !u!114 &1753781344 stripped
MonoBehaviour:
  m_PrefabParentObject: {fileID: 114000013910691454, guid: 41c0760bd81dd084283814f0c432b466,
    type: 2}
  m_PrefabInternal: {fileID: 1753781340}
  m_Script: {fileID: 11500000, guid: eeda6d41317f444b900e374895f14e95, type: 3}
--- !u!114 &1753781345 stripped
MonoBehaviour:
  m_PrefabParentObject: {fileID: 114000010315091656, guid: 41c0760bd81dd084283814f0c432b466,
    type: 2}
  m_PrefabInternal: {fileID: 1753781340}
  m_Script: {fileID: 11500000, guid: eeda6d41317f444b900e374895f14e95, type: 3}
--- !u!114 &1753781346 stripped
MonoBehaviour:
  m_PrefabParentObject: {fileID: 114000013615672388, guid: 41c0760bd81dd084283814f0c432b466,
    type: 2}
  m_PrefabInternal: {fileID: 1753781340}
  m_Script: {fileID: 11500000, guid: eeda6d41317f444b900e374895f14e95, type: 3}
--- !u!1 &2108078769 stripped
GameObject:
  m_PrefabParentObject: {fileID: 1000012074436610, guid: 41c0760bd81dd084283814f0c432b466,
    type: 2}
  m_PrefabInternal: {fileID: 1753781340}
--- !u!1 &2123877843
GameObject:
  m_ObjectHideFlags: 0
  m_PrefabParentObject: {fileID: 0}
  m_PrefabInternal: {fileID: 0}
  serializedVersion: 5
  m_Component:
  - component: {fileID: 2123877845}
  - component: {fileID: 2123877844}
  m_Layer: 0
  m_Name: Directional Light
  m_TagString: Untagged
  m_Icon: {fileID: 0}
  m_NavMeshLayer: 0
  m_StaticEditorFlags: 0
  m_IsActive: 1
--- !u!108 &2123877844
Light:
  m_ObjectHideFlags: 0
  m_PrefabParentObject: {fileID: 0}
  m_PrefabInternal: {fileID: 0}
  m_GameObject: {fileID: 2123877843}
  m_Enabled: 1
  serializedVersion: 8
  m_Type: 1
  m_Color: {r: 1, g: 0.95686275, b: 0.8392157, a: 1}
  m_Intensity: 1
  m_Range: 10
  m_SpotAngle: 30
  m_CookieSize: 10
  m_Shadows:
    m_Type: 2
    m_Resolution: -1
    m_CustomResolution: -1
    m_Strength: 1
    m_Bias: 0.05
    m_NormalBias: 0.4
    m_NearPlane: 0.2
  m_Cookie: {fileID: 0}
  m_DrawHalo: 0
  m_Flare: {fileID: 0}
  m_RenderMode: 0
  m_CullingMask:
    serializedVersion: 2
    m_Bits: 4294967295
  m_Lightmapping: 4
  m_AreaSize: {x: 1, y: 1}
  m_BounceIntensity: 1
  m_ColorTemperature: 6570
  m_UseColorTemperature: 0
  m_ShadowRadius: 0
  m_ShadowAngle: 0
--- !u!4 &2123877845
Transform:
  m_ObjectHideFlags: 0
  m_PrefabParentObject: {fileID: 0}
  m_PrefabInternal: {fileID: 0}
  m_GameObject: {fileID: 2123877843}
  m_LocalRotation: {x: 0.40821794, y: -0.23456973, z: 0.109381676, w: 0.87542605}
  m_LocalPosition: {x: 0, y: 3, z: 0}
  m_LocalScale: {x: 1, y: 1, z: 1}
  m_Children: []
  m_Father: {fileID: 0}
  m_RootOrder: 0
  m_LocalEulerAnglesHint: {x: 0, y: 0, z: 0}
--- !u!1001 &2134293818
Prefab:
  m_ObjectHideFlags: 0
  serializedVersion: 2
  m_Modification:
    m_TransformParent: {fileID: 116243922}
    m_Modifications:
    - target: {fileID: 224000013127654674, guid: d46cf6b1ad9d84a48ae7548a2a6b41b3,
        type: 2}
      propertyPath: m_LocalPosition.x
      value: 0
      objectReference: {fileID: 0}
    - target: {fileID: 224000013127654674, guid: d46cf6b1ad9d84a48ae7548a2a6b41b3,
        type: 2}
      propertyPath: m_LocalPosition.y
      value: 0
      objectReference: {fileID: 0}
    - target: {fileID: 224000013127654674, guid: d46cf6b1ad9d84a48ae7548a2a6b41b3,
        type: 2}
      propertyPath: m_LocalPosition.z
      value: 0
      objectReference: {fileID: 0}
    - target: {fileID: 224000013127654674, guid: d46cf6b1ad9d84a48ae7548a2a6b41b3,
        type: 2}
      propertyPath: m_LocalRotation.x
      value: 0
      objectReference: {fileID: 0}
    - target: {fileID: 224000013127654674, guid: d46cf6b1ad9d84a48ae7548a2a6b41b3,
        type: 2}
      propertyPath: m_LocalRotation.y
      value: 0
      objectReference: {fileID: 0}
    - target: {fileID: 224000013127654674, guid: d46cf6b1ad9d84a48ae7548a2a6b41b3,
        type: 2}
      propertyPath: m_LocalRotation.z
      value: 0
      objectReference: {fileID: 0}
    - target: {fileID: 224000013127654674, guid: d46cf6b1ad9d84a48ae7548a2a6b41b3,
        type: 2}
      propertyPath: m_LocalRotation.w
      value: 1
      objectReference: {fileID: 0}
    - target: {fileID: 224000013127654674, guid: d46cf6b1ad9d84a48ae7548a2a6b41b3,
        type: 2}
      propertyPath: m_RootOrder
      value: 1
      objectReference: {fileID: 0}
    - target: {fileID: 224000013127654674, guid: d46cf6b1ad9d84a48ae7548a2a6b41b3,
        type: 2}
      propertyPath: m_AnchoredPosition.x
      value: 0
      objectReference: {fileID: 0}
    - target: {fileID: 224000013127654674, guid: d46cf6b1ad9d84a48ae7548a2a6b41b3,
        type: 2}
      propertyPath: m_AnchoredPosition.y
      value: 0
      objectReference: {fileID: 0}
    - target: {fileID: 224000013127654674, guid: d46cf6b1ad9d84a48ae7548a2a6b41b3,
        type: 2}
      propertyPath: m_SizeDelta.x
      value: 0
      objectReference: {fileID: 0}
    - target: {fileID: 224000013127654674, guid: d46cf6b1ad9d84a48ae7548a2a6b41b3,
        type: 2}
      propertyPath: m_SizeDelta.y
      value: 0
      objectReference: {fileID: 0}
    - target: {fileID: 224000013127654674, guid: d46cf6b1ad9d84a48ae7548a2a6b41b3,
        type: 2}
      propertyPath: m_AnchorMin.x
      value: 0
      objectReference: {fileID: 0}
    - target: {fileID: 224000013127654674, guid: d46cf6b1ad9d84a48ae7548a2a6b41b3,
        type: 2}
      propertyPath: m_AnchorMin.y
      value: 0
      objectReference: {fileID: 0}
    - target: {fileID: 224000013127654674, guid: d46cf6b1ad9d84a48ae7548a2a6b41b3,
        type: 2}
      propertyPath: m_AnchorMax.x
      value: 0
      objectReference: {fileID: 0}
    - target: {fileID: 224000013127654674, guid: d46cf6b1ad9d84a48ae7548a2a6b41b3,
        type: 2}
      propertyPath: m_AnchorMax.y
      value: 0
      objectReference: {fileID: 0}
    - target: {fileID: 224000013127654674, guid: d46cf6b1ad9d84a48ae7548a2a6b41b3,
        type: 2}
      propertyPath: m_Pivot.x
      value: 0
      objectReference: {fileID: 0}
    - target: {fileID: 224000013127654674, guid: d46cf6b1ad9d84a48ae7548a2a6b41b3,
        type: 2}
      propertyPath: m_Pivot.y
      value: 0
      objectReference: {fileID: 0}
    - target: {fileID: 224000013127654674, guid: d46cf6b1ad9d84a48ae7548a2a6b41b3,
        type: 2}
      propertyPath: m_LocalScale.x
      value: 0
      objectReference: {fileID: 0}
    - target: {fileID: 224000013127654674, guid: d46cf6b1ad9d84a48ae7548a2a6b41b3,
        type: 2}
      propertyPath: m_LocalScale.y
      value: 0
      objectReference: {fileID: 0}
    - target: {fileID: 224000013127654674, guid: d46cf6b1ad9d84a48ae7548a2a6b41b3,
        type: 2}
      propertyPath: m_LocalScale.z
      value: 0
      objectReference: {fileID: 0}
    - target: {fileID: 224000012326194302, guid: d46cf6b1ad9d84a48ae7548a2a6b41b3,
        type: 2}
      propertyPath: m_AnchorMin.y
      value: 0
      objectReference: {fileID: 0}
    - target: {fileID: 224000012326194302, guid: d46cf6b1ad9d84a48ae7548a2a6b41b3,
        type: 2}
      propertyPath: m_AnchorMax.y
      value: 0
      objectReference: {fileID: 0}
    - target: {fileID: 224000012326194302, guid: d46cf6b1ad9d84a48ae7548a2a6b41b3,
        type: 2}
      propertyPath: m_AnchoredPosition.x
      value: 0
      objectReference: {fileID: 0}
    - target: {fileID: 224000012326194302, guid: d46cf6b1ad9d84a48ae7548a2a6b41b3,
        type: 2}
      propertyPath: m_AnchoredPosition.y
      value: 0
      objectReference: {fileID: 0}
    - target: {fileID: 224000012326194302, guid: d46cf6b1ad9d84a48ae7548a2a6b41b3,
        type: 2}
      propertyPath: m_SizeDelta.x
      value: 0
      objectReference: {fileID: 0}
    - target: {fileID: 224000012326194302, guid: d46cf6b1ad9d84a48ae7548a2a6b41b3,
        type: 2}
      propertyPath: m_SizeDelta.y
      value: 0
      objectReference: {fileID: 0}
    - target: {fileID: 224000012859001416, guid: d46cf6b1ad9d84a48ae7548a2a6b41b3,
        type: 2}
      propertyPath: m_AnchorMin.y
      value: 0
      objectReference: {fileID: 0}
    - target: {fileID: 224000012859001416, guid: d46cf6b1ad9d84a48ae7548a2a6b41b3,
        type: 2}
      propertyPath: m_AnchorMax.y
      value: 0
      objectReference: {fileID: 0}
    - target: {fileID: 224000012859001416, guid: d46cf6b1ad9d84a48ae7548a2a6b41b3,
        type: 2}
      propertyPath: m_AnchoredPosition.x
      value: 0
      objectReference: {fileID: 0}
    - target: {fileID: 224000012859001416, guid: d46cf6b1ad9d84a48ae7548a2a6b41b3,
        type: 2}
      propertyPath: m_AnchoredPosition.y
      value: 0
      objectReference: {fileID: 0}
    - target: {fileID: 224000012859001416, guid: d46cf6b1ad9d84a48ae7548a2a6b41b3,
        type: 2}
      propertyPath: m_SizeDelta.x
      value: 0
      objectReference: {fileID: 0}
    - target: {fileID: 224000012859001416, guid: d46cf6b1ad9d84a48ae7548a2a6b41b3,
        type: 2}
      propertyPath: m_SizeDelta.y
      value: 0
      objectReference: {fileID: 0}
    - target: {fileID: 224000012504011746, guid: d46cf6b1ad9d84a48ae7548a2a6b41b3,
        type: 2}
      propertyPath: m_AnchorMin.y
      value: 0
      objectReference: {fileID: 0}
    - target: {fileID: 224000012504011746, guid: d46cf6b1ad9d84a48ae7548a2a6b41b3,
        type: 2}
      propertyPath: m_AnchorMax.y
      value: 0
      objectReference: {fileID: 0}
    - target: {fileID: 224000012504011746, guid: d46cf6b1ad9d84a48ae7548a2a6b41b3,
        type: 2}
      propertyPath: m_AnchoredPosition.x
      value: 0
      objectReference: {fileID: 0}
    - target: {fileID: 224000012504011746, guid: d46cf6b1ad9d84a48ae7548a2a6b41b3,
        type: 2}
      propertyPath: m_AnchoredPosition.y
      value: 0
      objectReference: {fileID: 0}
    - target: {fileID: 224000012504011746, guid: d46cf6b1ad9d84a48ae7548a2a6b41b3,
        type: 2}
      propertyPath: m_SizeDelta.x
      value: 0
      objectReference: {fileID: 0}
    - target: {fileID: 224000012504011746, guid: d46cf6b1ad9d84a48ae7548a2a6b41b3,
        type: 2}
      propertyPath: m_SizeDelta.y
      value: 0
      objectReference: {fileID: 0}
    - target: {fileID: 224000010358937380, guid: d46cf6b1ad9d84a48ae7548a2a6b41b3,
        type: 2}
      propertyPath: m_AnchorMin.y
      value: 0
      objectReference: {fileID: 0}
    - target: {fileID: 224000010358937380, guid: d46cf6b1ad9d84a48ae7548a2a6b41b3,
        type: 2}
      propertyPath: m_AnchorMax.y
      value: 0
      objectReference: {fileID: 0}
    - target: {fileID: 224000010358937380, guid: d46cf6b1ad9d84a48ae7548a2a6b41b3,
        type: 2}
      propertyPath: m_AnchoredPosition.x
      value: 0
      objectReference: {fileID: 0}
    - target: {fileID: 224000010358937380, guid: d46cf6b1ad9d84a48ae7548a2a6b41b3,
        type: 2}
      propertyPath: m_AnchoredPosition.y
      value: 0
      objectReference: {fileID: 0}
    - target: {fileID: 224000010358937380, guid: d46cf6b1ad9d84a48ae7548a2a6b41b3,
        type: 2}
      propertyPath: m_SizeDelta.x
      value: 0
      objectReference: {fileID: 0}
    - target: {fileID: 224000010358937380, guid: d46cf6b1ad9d84a48ae7548a2a6b41b3,
        type: 2}
      propertyPath: m_SizeDelta.y
      value: 0
      objectReference: {fileID: 0}
    - target: {fileID: 224000012747905524, guid: d46cf6b1ad9d84a48ae7548a2a6b41b3,
        type: 2}
      propertyPath: m_AnchorMin.y
      value: 0
      objectReference: {fileID: 0}
    - target: {fileID: 224000012747905524, guid: d46cf6b1ad9d84a48ae7548a2a6b41b3,
        type: 2}
      propertyPath: m_AnchorMax.y
      value: 0
      objectReference: {fileID: 0}
    - target: {fileID: 224000012747905524, guid: d46cf6b1ad9d84a48ae7548a2a6b41b3,
        type: 2}
      propertyPath: m_AnchoredPosition.x
      value: 0
      objectReference: {fileID: 0}
    - target: {fileID: 224000012747905524, guid: d46cf6b1ad9d84a48ae7548a2a6b41b3,
        type: 2}
      propertyPath: m_AnchoredPosition.y
      value: 0
      objectReference: {fileID: 0}
    - target: {fileID: 224000012747905524, guid: d46cf6b1ad9d84a48ae7548a2a6b41b3,
        type: 2}
      propertyPath: m_SizeDelta.x
      value: 0
      objectReference: {fileID: 0}
    - target: {fileID: 224000012747905524, guid: d46cf6b1ad9d84a48ae7548a2a6b41b3,
        type: 2}
      propertyPath: m_SizeDelta.y
      value: 0
      objectReference: {fileID: 0}
    - target: {fileID: 224000010901609716, guid: d46cf6b1ad9d84a48ae7548a2a6b41b3,
        type: 2}
      propertyPath: m_AnchorMin.y
      value: 0
      objectReference: {fileID: 0}
    - target: {fileID: 224000010901609716, guid: d46cf6b1ad9d84a48ae7548a2a6b41b3,
        type: 2}
      propertyPath: m_AnchorMax.y
      value: 0
      objectReference: {fileID: 0}
    - target: {fileID: 224000010901609716, guid: d46cf6b1ad9d84a48ae7548a2a6b41b3,
        type: 2}
      propertyPath: m_AnchoredPosition.x
      value: 0
      objectReference: {fileID: 0}
    - target: {fileID: 224000010901609716, guid: d46cf6b1ad9d84a48ae7548a2a6b41b3,
        type: 2}
      propertyPath: m_AnchoredPosition.y
      value: 0
      objectReference: {fileID: 0}
    - target: {fileID: 224000010901609716, guid: d46cf6b1ad9d84a48ae7548a2a6b41b3,
        type: 2}
      propertyPath: m_SizeDelta.x
      value: 0
      objectReference: {fileID: 0}
    - target: {fileID: 224000010901609716, guid: d46cf6b1ad9d84a48ae7548a2a6b41b3,
        type: 2}
      propertyPath: m_SizeDelta.y
      value: 0
      objectReference: {fileID: 0}
    - target: {fileID: 224000010722234208, guid: d46cf6b1ad9d84a48ae7548a2a6b41b3,
        type: 2}
      propertyPath: m_AnchorMin.y
      value: 0
      objectReference: {fileID: 0}
    - target: {fileID: 224000010722234208, guid: d46cf6b1ad9d84a48ae7548a2a6b41b3,
        type: 2}
      propertyPath: m_AnchorMax.y
      value: 0
      objectReference: {fileID: 0}
    - target: {fileID: 224000010722234208, guid: d46cf6b1ad9d84a48ae7548a2a6b41b3,
        type: 2}
      propertyPath: m_AnchoredPosition.x
      value: 0
      objectReference: {fileID: 0}
    - target: {fileID: 224000010722234208, guid: d46cf6b1ad9d84a48ae7548a2a6b41b3,
        type: 2}
      propertyPath: m_AnchoredPosition.y
      value: 0
      objectReference: {fileID: 0}
    - target: {fileID: 224000010722234208, guid: d46cf6b1ad9d84a48ae7548a2a6b41b3,
        type: 2}
      propertyPath: m_SizeDelta.x
      value: 0
      objectReference: {fileID: 0}
    - target: {fileID: 224000010722234208, guid: d46cf6b1ad9d84a48ae7548a2a6b41b3,
        type: 2}
      propertyPath: m_SizeDelta.y
      value: 0
      objectReference: {fileID: 0}
    - target: {fileID: 224000010535295132, guid: d46cf6b1ad9d84a48ae7548a2a6b41b3,
        type: 2}
      propertyPath: m_AnchorMin.y
      value: 0
      objectReference: {fileID: 0}
    - target: {fileID: 224000010535295132, guid: d46cf6b1ad9d84a48ae7548a2a6b41b3,
        type: 2}
      propertyPath: m_AnchorMax.y
      value: 0
      objectReference: {fileID: 0}
    - target: {fileID: 224000010535295132, guid: d46cf6b1ad9d84a48ae7548a2a6b41b3,
        type: 2}
      propertyPath: m_AnchoredPosition.x
      value: 0
      objectReference: {fileID: 0}
    - target: {fileID: 224000010535295132, guid: d46cf6b1ad9d84a48ae7548a2a6b41b3,
        type: 2}
      propertyPath: m_AnchoredPosition.y
      value: 0
      objectReference: {fileID: 0}
    - target: {fileID: 224000010535295132, guid: d46cf6b1ad9d84a48ae7548a2a6b41b3,
        type: 2}
      propertyPath: m_SizeDelta.x
      value: 0
      objectReference: {fileID: 0}
    - target: {fileID: 224000010535295132, guid: d46cf6b1ad9d84a48ae7548a2a6b41b3,
        type: 2}
      propertyPath: m_SizeDelta.y
      value: 0
      objectReference: {fileID: 0}
    - target: {fileID: 224000012484682510, guid: d46cf6b1ad9d84a48ae7548a2a6b41b3,
        type: 2}
      propertyPath: m_AnchorMin.y
      value: 0
      objectReference: {fileID: 0}
    - target: {fileID: 224000012484682510, guid: d46cf6b1ad9d84a48ae7548a2a6b41b3,
        type: 2}
      propertyPath: m_AnchorMax.y
      value: 0
      objectReference: {fileID: 0}
    - target: {fileID: 224000012484682510, guid: d46cf6b1ad9d84a48ae7548a2a6b41b3,
        type: 2}
      propertyPath: m_AnchoredPosition.x
      value: 0
      objectReference: {fileID: 0}
    - target: {fileID: 224000012484682510, guid: d46cf6b1ad9d84a48ae7548a2a6b41b3,
        type: 2}
      propertyPath: m_AnchoredPosition.y
      value: 0
      objectReference: {fileID: 0}
    - target: {fileID: 224000012484682510, guid: d46cf6b1ad9d84a48ae7548a2a6b41b3,
        type: 2}
      propertyPath: m_SizeDelta.x
      value: 0
      objectReference: {fileID: 0}
    - target: {fileID: 224000012484682510, guid: d46cf6b1ad9d84a48ae7548a2a6b41b3,
        type: 2}
      propertyPath: m_SizeDelta.y
      value: 0
      objectReference: {fileID: 0}
    - target: {fileID: 224000010031187690, guid: d46cf6b1ad9d84a48ae7548a2a6b41b3,
        type: 2}
      propertyPath: m_AnchorMin.y
      value: 0
      objectReference: {fileID: 0}
    - target: {fileID: 224000010031187690, guid: d46cf6b1ad9d84a48ae7548a2a6b41b3,
        type: 2}
      propertyPath: m_AnchorMax.y
      value: 0
      objectReference: {fileID: 0}
    - target: {fileID: 224000010031187690, guid: d46cf6b1ad9d84a48ae7548a2a6b41b3,
        type: 2}
      propertyPath: m_AnchoredPosition.x
      value: 0
      objectReference: {fileID: 0}
    - target: {fileID: 224000010031187690, guid: d46cf6b1ad9d84a48ae7548a2a6b41b3,
        type: 2}
      propertyPath: m_AnchoredPosition.y
      value: 0
      objectReference: {fileID: 0}
    - target: {fileID: 224000010031187690, guid: d46cf6b1ad9d84a48ae7548a2a6b41b3,
        type: 2}
      propertyPath: m_SizeDelta.x
      value: 0
      objectReference: {fileID: 0}
    - target: {fileID: 224000010031187690, guid: d46cf6b1ad9d84a48ae7548a2a6b41b3,
        type: 2}
      propertyPath: m_SizeDelta.y
      value: 0
      objectReference: {fileID: 0}
    - target: {fileID: 224000012623161658, guid: d46cf6b1ad9d84a48ae7548a2a6b41b3,
        type: 2}
      propertyPath: m_AnchorMin.y
      value: 0
      objectReference: {fileID: 0}
    - target: {fileID: 224000012623161658, guid: d46cf6b1ad9d84a48ae7548a2a6b41b3,
        type: 2}
      propertyPath: m_AnchorMax.y
      value: 0
      objectReference: {fileID: 0}
    - target: {fileID: 224000012623161658, guid: d46cf6b1ad9d84a48ae7548a2a6b41b3,
        type: 2}
      propertyPath: m_AnchoredPosition.x
      value: 0
      objectReference: {fileID: 0}
    - target: {fileID: 224000012623161658, guid: d46cf6b1ad9d84a48ae7548a2a6b41b3,
        type: 2}
      propertyPath: m_AnchoredPosition.y
      value: 0
      objectReference: {fileID: 0}
    - target: {fileID: 224000012623161658, guid: d46cf6b1ad9d84a48ae7548a2a6b41b3,
        type: 2}
      propertyPath: m_SizeDelta.x
      value: 0
      objectReference: {fileID: 0}
    - target: {fileID: 224000012623161658, guid: d46cf6b1ad9d84a48ae7548a2a6b41b3,
        type: 2}
      propertyPath: m_SizeDelta.y
      value: 0
      objectReference: {fileID: 0}
    m_RemovedComponents: []
  m_ParentPrefab: {fileID: 100100000, guid: d46cf6b1ad9d84a48ae7548a2a6b41b3, type: 2}
  m_IsPrefabParent: 0
--- !u!224 &2134293819 stripped
RectTransform:
  m_PrefabParentObject: {fileID: 224000013127654674, guid: d46cf6b1ad9d84a48ae7548a2a6b41b3,
    type: 2}
  m_PrefabInternal: {fileID: 2134293818}
